…
## State-wise analysis


```r
# we need to see the overall Sales and Profits in each State
state_data <- store %>% 
  select(State, Sales, Profit, Discount) %>% 
    group_by(State) %>% 
      summarise(Sale = sum(Sales), Profits = sum(Profit), Discounts = sum(Discount), .groups = "keep")

state_data
```

```
## # A tibble: 49 x 4
## # Groups:   State [49]
##    State                   Sale Profits Discounts
##    <chr>                  <dbl>   <dbl>     <dbl>
##  1 Alabama               19511.   5787.       0  
##  2 Arizona               35282.  -3428.      68  
##  3 Arkansas              11678.   4009.       0  
##  4 California           457576.  76331.     146. 
##  5 Colorado              32108.  -6528.      57.6
##  6 Connecticut           13384.   3511.       0.6
##  7 Delaware              27451.   9977.       0.6
##  8 District of Columbia   2865.   1060.       0  
##  9 Florida               89474.  -3399.     115. 
## 10 Georgia               49096.  16250.       0  
## # ... with 39 more rows
```
…
